(footprint "Quectel_L80-R" (version 20211014) (generator pcbnew)
  (layer "F.Cu")
  (tedit 5F72C6D4)
  (descr "Quectel L80-R GPS Module, Patch on Top, https://www.quectel.com/UploadImage/Downlad/Quectel_L80-R_Hardware_Design_V1.2.pdf")
  (tags "quectel GPS GNSS")
  (attr smd)
  (fp_text reference "REF**" (at 0 -9 -180) (layer "F.SilkS")
    (effects (font (size 1 1) (thickness 0.15)))
    (tstamp 3d7ff328-d147-4f41-99b7-9484330a7612)
  )
  (fp_text value "Quectel_L80-R" (at 0 9 -180) (layer "F.Fab")
    (effects (font (size 1 1) (thickness 0.15)))
    (tstamp 82ba9f6c-ae63-4bd9-96ca-f08007abd01d)
  )
  (fp_text user "Keepout" (at -0.6 -0.63) (layer "Cmts.User")
    (effects (font (size 0.4 0.4) (thickness 0.1)))
    (tstamp 63c7d880-bbe8-431e-9066-9d56b33ecf7d)
  )
  (fp_text user "${REFERENCE}" (at 0 2.032) (layer "F.Fab")
    (effects (font (size 1 1) (thickness 0.15)))
    (tstamp ccd496b6-7680-44db-b11b-b5c1386d46fb)
  )
  (fp_line (start 8 -8.11) (end -8.11 -8.11) (layer "F.SilkS") (width 0.12) (tstamp 2f13fb6b-db4d-4bee-8a2a-ab692a585d19))
  (fp_line (start 8 8.11) (end -8 8.11) (layer "F.SilkS") (width 0.12) (tstamp 59c0d892-d4f6-4dd7-8d4a-cc79ec9731e1))
  (fp_line (start -8.11 -8.11) (end -8.11 -6.5) (layer "F.SilkS") (width 0.12) (tstamp cb7ef7f2-4cb2-4f1a-b99b-622517521ef9))
  (fp_circle (center -0.6 -0.63) (end 0.65 -0.63) (layer "Dwgs.User") (width 0.12) (fill none) (tstamp 33836598-94db-48b1-acd6-a0fdb959c1de))
  (fp_line (start -9.25 -8.25) (end 9.25 -8.25) (layer "F.CrtYd") (width 0.05) (tstamp 7246606f-caca-41d5-89fc-7f875b28d175))
  (fp_line (start -9.25 8.25) (end 9.25 8.25) (layer "F.CrtYd") (width 0.05) (tstamp 83d5bbc7-a1eb-40c1-9b1b-f84ad733687f))
  (fp_line (start 9.25 8.25) (end 9.25 -8.25) (layer "F.CrtYd") (width 0.05) (tstamp 9c7dfb14-3cfe-4924-9687-06f268001a29))
  (fp_line (start -9.25 -8.25) (end -9.25 8.25) (layer "F.CrtYd") (width 0.05) (tstamp d34f86c9-63df-459f-ac64-c9e9c06eae78))
  (fp_line (start 8 8) (end 8 -8) (layer "F.Fab") (width 0.1) (tstamp 561908ee-b0a6-4d1d-9913-536013c735c7))
  (fp_line (start -8 8) (end -8 -8) (layer "F.Fab") (width 0.1) (tstamp af17c8ce-4d29-42db-9a7e-f5cdd6fd8059))
  (fp_line (start 8 8) (end -8 8) (layer "F.Fab") (width 0.1) (tstamp ec136959-aaab-453e-b631-23c49e69da7b))
  (fp_line (start 8 -8) (end -8 -8) (layer "F.Fab") (width 0.1) (tstamp fdabc120-e414-462b-9477-eb0caf503c97))
  (pad "1" smd rect (at -7.75 -5.85 180) (size 2.5 1) (layers "F.Cu" "F.Paste" "F.Mask") (tstamp 08fdf9a5-060a-42d0-b217-ee2306e1305e))
  (pad "2" smd rect (at -7.75 -3.31 180) (size 2.5 1) (layers "F.Cu" "F.Paste" "F.Mask") (tstamp 2d373a3e-20de-4a6e-9065-8a856f7ec38d))
  (pad "3" smd rect (at -7.75 -0.77 180) (size 2.5 1) (layers "F.Cu" "F.Paste" "F.Mask") (tstamp 63ba71fb-d25b-4f06-9344-c6c504b239be))
  (pad "4" smd rect (at -7.75 1.77 180) (size 2.5 1) (layers "F.Cu" "F.Paste" "F.Mask") (tstamp a9380d9d-496e-4efb-a1e4-c2ccce6861eb))
  (pad "5" smd rect (at -7.75 4.31 180) (size 2.5 1) (layers "F.Cu" "F.Paste" "F.Mask") (tstamp 3b137aad-b368-4267-b6d8-76d40f87cf81))
  (pad "6" smd rect (at -7.75 6.85 180) (size 2.5 1) (layers "F.Cu" "F.Paste" "F.Mask") (tstamp 106f6eec-39cc-4dd3-a92e-6f42d1064d3d))
  (pad "7" smd rect (at 7.75 6.85 180) (size 2.5 1) (layers "F.Cu" "F.Paste" "F.Mask") (tstamp 6416ba11-f527-4375-8b05-11b1909ed853))
  (pad "8" smd rect (at 7.75 4.31 180) (size 2.5 1) (layers "F.Cu" "F.Paste" "F.Mask") (tstamp f83754cc-8751-420a-b219-94e7fcac8fc0))
  (pad "9" smd rect (at 7.75 1.77 180) (size 2.5 1) (layers "F.Cu" "F.Paste" "F.Mask") (tstamp baecffcf-0be7-4df2-b702-422c695efce4))
  (pad "10" smd rect (at 7.75 -0.77 180) (size 2.5 1) (layers "F.Cu" "F.Paste" "F.Mask") (tstamp 13567ef8-601a-4c83-84a3-998a211b1b7e))
  (pad "11" smd rect (at 7.75 -3.31 180) (size 2.5 1) (layers "F.Cu" "F.Paste" "F.Mask") (tstamp edff5eb6-e021-4c3f-818c-a2d2bb8d65d6))
  (pad "12" smd rect (at 7.75 -5.85 180) (size 2.5 1) (layers "F.Cu" "F.Paste" "F.Mask") (tstamp ab9bad64-13fe-4bef-ad45-841d7408b227))
  (model "${KICAD6_3DMODEL_DIR}/RF_GPS.3dshapes/Quectel_L80-R.wrl"
    (offset (xyz 0 0 0))
    (scale (xyz 1 1 1))
    (rotate (xyz 0 0 0))
  )
)
